<?xml version="1.0" encoding="iso-8859-1"?>
<!-- Generator: Adobe Illustrator 19.0.0, SVG Export Plug-In . SVG Version: 6.00 Build 0)  -->
<svg xmlns="http://www.w3.org/2000/svg" xmlns:xlink="http://www.w3.org/1999/xlink" version="1.1" id="Capa_1" x="0px" y="0px" viewBox="0 0 512 512" style="enable-background:new 0 0 512 512;" xml:space="preserve" width="512px" height="512px">
<g>
	<g>
		<path d="M340.636,307.787l-120.5-80.334c-4.602-3.069-10.521-3.355-15.398-0.745c-4.877,2.61-7.922,7.693-7.922,13.226v160.667    c0,5.532,3.045,10.615,7.922,13.225c2.218,1.186,4.65,1.774,7.077,1.774c2.91,0,5.812-0.846,8.321-2.52l120.5-80.333    c4.173-2.781,6.68-7.465,6.68-12.48S344.809,310.569,340.636,307.787z M226.816,372.574V267.962l78.458,52.306L226.816,372.574z" fill="#12ffb9"/>
	</g>
</g>
<g>
	<g>
		<path d="M497,128.533H15c-8.284,0-15,6.716-15,15V497c0,8.284,6.716,15,15,15h482c8.284,0,15-6.716,15-15V143.533    C512,135.249,505.284,128.533,497,128.533z M482,482H30V158.533h452V482z" fill="#12ffb9"/>
	</g>
</g>
<g>
	<g>
		<path d="M448.801,64.268h-385.6c-8.284,0-15,6.716-15,15s6.716,15,15,15h385.6c8.284,0,15-6.716,15-15    S457.085,64.268,448.801,64.268z" fill="#12ffb9"/>
	</g>
</g>
<g>
	<g>
		<path d="M400.6,0H111.4c-8.284,0-15,6.716-15,15s6.716,15,15,15h289.2c8.284,0,15-6.716,15-15S408.884,0,400.6,0z" fill="#12ffb9"/>
	</g>
</g>
<g>
</g>
<g>
</g>
<g>
</g>
<g>
</g>
<g>
</g>
<g>
</g>
<g>
</g>
<g>
</g>
<g>
</g>
<g>
</g>
<g>
</g>
<g>
</g>
<g>
</g>
<g>
</g>
<g>
</g>
</svg>
